{
    "username": "",
    "password": "", 
    "server": "ws://sim.psim.us:8000/showdown/websocket/",
    "rooms": [
        "joim"
    ],
    "whitelist": [

    ],
    "commandChar": ".",
    "enableWatchers": true,
    "messageTime": 0.5
}